…
``` r
epsilon56 = score56 - predicted.score56
epsilon56
```

    ##     score
    ## 1 0.35314

``` r
regression.points <- get_regression_points(model)
regression.points
```

    ## # A tibble: 463 x 5
    ##       ID score bty_avg score_hat residual
    ##    <int> <dbl>   <dbl>     <dbl>    <dbl>
    ##  1     1   4.7    5         4.21    0.486
    ##  2     2   4.1    5         4.21   -0.114
    ##  3     3   3.9    5         4.21   -0.314
    ##  4     4   4.8    5         4.21    0.586
    ##  5     5   4.6    3         4.08    0.52 
    ##  6     6   4.3    3         4.08    0.22 
    ##  7     7   2.8    3         4.08   -1.28 
    ##  8     8   4.1    3.33      4.10   -0.002
    ##  9     9   3.4    3.33      4.10   -0.702
    ## 10    10   4.5    3.17      4.09    0.409
    ## # ... with 453 more rows
…
we can obtain the fitted values and residuals in the same way we did
previously:

``` r
regression.points2 = get_regression_points(lifeExp.model)
regression.points2
```

    ## # A tibble: 142 x 5
    ##       ID lifeExp continent lifeExp_hat residual
    ##    <int>   <dbl> <fct>           <dbl>    <dbl>
    ##  1     1    43.8 Asia             70.7  -26.9  
    ##  2     2    76.4 Europe           77.6   -1.23 
    ##  3     3    72.3 Africa           54.8   17.5  
    ##  4     4    42.7 Africa           54.8  -12.1  
    ##  5     5    75.3 Americas         73.6    1.71 
    ##  6     6    81.2 Oceania          80.7    0.516
    ##  7     7    79.8 Europe           77.6    2.18 
    ##  8     8    75.6 Asia             70.7    4.91 
    ##  9     9    64.1 Asia             70.7   -6.67 
    ## 10    10    79.4 Europe           77.6    1.79 
    ## # ... with 132 more rows
…
